module otel-ping

go 1.18

require (
	github.com/census-instrumentation/opencensus-proto v0.3.0
	github.com/gogo/protobuf v1.3.2
	go.opentelemetry.io/collector/pdata v0.57.2
	go.opentelemetry.io/otel v1.9.0
	go.opentelemetry.io/otel/exporters/otlp/otlpmetric v0.31.0
	go.opentelemetry.io/otel/exporters/otlp/otlpmetric/otlpmetricgrpc v0.31.0
	go.opentelemetry.io/otel/exporters/otlp/otlpmetric/otlpmetrichttp v0.31.0
	go.opentelemetry.io/otel/exporters/otlp/otlptrace v1.9.0
	go.opentelemetry.io/otel/exporters/otlp/otlptrace/otlptracegrpc v1.9.0
	go.opentelemetry.io/otel/exporters/otlp/otlptrace/otlptracehttp v1.9.0
	go.opentelemetry.io/otel/metric v0.31.0
	go.opentelemetry.io/otel/sdk v1.9.0
	go.opentelemetry.io/otel/sdk/metric v0.31.0
	google.golang.org/grpc v1.48.0
)

require (
	github.com/cenkalti/backoff/v4 v4.1.3 // indirect
	github.com/go-logr/logr v1.2.3 // indirect
	github.com/go-logr/stdr v1.2.2 // indirect
	github.com/golang/protobuf v1.5.2 // indirect
	github.com/grpc-ecosystem/grpc-gateway v1.16.0 // indirect
	github.com/grpc-ecosystem/grpc-gateway/v2 v2.7.0 // indirect
	go.opentelemetry.io/otel/exporters/otlp/internal/retry v1.9.0 // indirect
	go.opentelemetry.io/otel/trace v1.9.0 // indirect
	go.opentelemetry.io/proto/otlp v0.18.0 // indirect
	golang.org/x/net v0.0.0-20210405180319-a5a99cb37ef4 // indirect
	golang.org/x/sys v0.0.0-20210510120138-977fb7262007 // indirect
	golang.org/x/text v0.3.5 // indirect
	google.golang.org/genproto v0.0.0-20211118181313-81c1377c94b1 // indirect
	google.golang.org/protobuf v1.28.1 // indirect
)
